﻿object={
	name="env_desert_ambient_close"
	clamp_to_water_level=yes
	render_under_water=no
	generated_content=no
	layer="env_effect_layer"
	entity="env_desert_plains_ambient"
	count=1
	transform="5459.463379 0.000000 1891.604248 0.000000 0.000000 0.000000 1.000000 0.552173 0.552173 0.552173
"}
object={
	name="env_desert_mountains"
	clamp_to_water_level=yes
	render_under_water=no
	generated_content=no
	layer="env_effect_mountains_layer"
	entity="env_desert_mountains"
	count=3
	transform="775.308350 -0.837280 1708.707886 0.000000 0.000000 0.000000 1.000000 0.448315 0.448315 0.448315
1289.737183 0.000000 1506.074219 0.000000 0.000000 0.000000 1.000000 1.000000 1.000000 1.000000
1237.985474 0.000000 1557.589600 0.000000 0.000000 0.000000 1.000000 1.000000 1.000000 1.000000
"}
object={
	name="env_desert_plains"
	clamp_to_water_level=yes
	render_under_water=no
	generated_content=no
	layer="env_effect_layer"
	entity="env_desert_plains"
	count=1
	transform="380.762756 0.000000 636.083801 0.000000 0.000000 0.000000 1.000000 0.741217 0.741217 0.741217
"}
object={
	name="env_desert_plains_ambient"
	clamp_to_water_level=yes
	render_under_water=no
	generated_content=no
	layer="env_effect_layer"
	entity="env_desert_plains_ambient"
	count=1
	transform="235.835510 0.000000 948.768127 0.000000 0.000000 0.000000 1.000000 1.000000 1.000000 1.000000
"}
object={
	name="env_forest_mountains"
	clamp_to_water_level=yes
	render_under_water=no
	generated_content=no
	layer="env_effect_mountains_layer"
	entity="env_mist_sun"
	count=1
	transform="2402.509033 0.000000 2471.274902 0.000000 0.000000 0.000000 1.000000 1.000000 1.000000 1.000000
"}
object={
	name="env_mist_forest"
	clamp_to_water_level=yes
	render_under_water=no
	generated_content=no
	layer="env_effect_layer"
	entity="env_mist_sun"
	count=115
	transform="2141.059326 0.000000 3543.593506 0.000000 0.000000 0.000000 1.000000 1.000000 1.000000 1.000000
1941.708984 2.183838 2635.435547 0.000000 0.000000 0.000000 1.000000 1.000000 1.000000 1.000000
1965.076538 0.000000 2590.812256 0.000000 0.000000 0.000000 1.000000 1.000000 1.000000 1.000000
1988.999268 0.000000 2554.277100 0.000000 0.000000 0.000000 1.000000 1.000000 1.000000 1.000000
1960.099731 0.000000 2542.109863 0.000000 0.000000 0.000000 1.000000 1.000000 1.000000 1.000000
1934.082642 0.000000 2551.497070 0.000000 0.000000 0.000000 1.000000 1.000000 1.000000 1.000000
1883.408203 0.000000 2545.308594 0.000000 0.000000 0.000000 1.000000 1.000000 1.000000 1.000000
1891.218018 0.000000 2516.280762 0.000000 0.000000 0.000000 1.000000 1.000000 1.000000 1.000000
1948.040771 0.000000 2567.175537 0.000000 0.000000 0.000000 1.000000 1.000000 1.000000 1.000000
2006.069336 0.000000 2524.748779 0.000000 0.000000 0.000000 1.000000 1.000000 1.000000 1.000000
2024.580811 0.000000 2575.234375 0.000000 0.000000 0.000000 1.000000 1.000000 1.000000 1.000000
1991.783813 0.000000 2590.881348 0.000000 0.000000 0.000000 1.000000 1.000000 1.000000 1.000000
2043.398926 0.000000 2515.463867 0.000000 0.000000 0.000000 1.000000 1.000000 1.000000 1.000000
2035.353516 0.522949 2473.020264 0.000000 0.000000 0.000000 1.000000 1.000000 1.000000 1.000000
2043.724365 0.000000 2496.003662 0.000000 0.000000 0.000000 1.000000 1.000000 1.000000 1.000000
2011.162109 0.000000 2431.955322 0.000000 0.000000 0.000000 1.000000 1.000000 1.000000 1.000000
1989.464233 0.000000 2476.718750 0.000000 0.000000 0.000000 1.000000 1.000000 1.000000 1.000000
1589.795776 1.227051 2593.948730 0.000000 0.000000 0.000000 1.000000 1.000000 1.000000 1.000000
1574.319580 1.542236 2650.233643 0.000000 0.000000 0.000000 1.000000 1.000000 1.000000 1.000000
1612.252563 0.000000 2628.048340 0.000000 0.000000 0.000000 1.000000 1.000000 1.000000 1.000000
1637.980835 0.000000 2661.684082 0.000000 0.000000 0.000000 1.000000 1.000000 1.000000 1.000000
1648.224487 0.000000 2604.006104 0.000000 0.000000 0.000000 1.000000 1.000000 1.000000 1.000000
1630.928223 0.000000 2551.431396 0.000000 0.000000 0.000000 1.000000 1.000000 1.000000 1.000000
1696.381592 0.000000 2554.772217 0.000000 0.000000 0.000000 1.000000 1.000000 1.000000 1.000000
1672.780029 0.000000 2521.954346 0.000000 0.000000 0.000000 1.000000 1.000000 1.000000 1.000000
1666.344238 1.314453 2561.606689 0.000000 0.000000 0.000000 1.000000 1.000000 1.000000 1.000000
1674.397705 2.852539 2625.833008 0.000000 0.000000 0.000000 1.000000 1.000000 1.000000 1.000000
1702.217407 0.000000 2591.781738 0.000000 0.000000 0.000000 1.000000 1.000000 1.000000 1.000000
1741.580078 0.000000 2579.228760 0.000000 0.000000 0.000000 1.000000 1.000000 1.000000 1.000000
1726.514038 0.000000 2526.526611 0.000000 0.000000 0.000000 1.000000 1.000000 1.000000 1.000000
1767.999390 0.000000 2536.661377 0.000000 0.000000 0.000000 1.000000 1.000000 1.000000 1.000000
1632.954224 0.000000 2535.541504 0.000000 0.000000 0.000000 1.000000 1.000000 1.000000 1.000000
1774.512451 2.352783 2478.050781 0.000000 0.000000 0.000000 1.000000 1.000000 1.000000 1.000000
1840.785645 2.434814 2500.632324 0.000000 0.000000 0.000000 1.000000 1.000000 1.000000 1.000000
1970.918091 1.393311 2500.600342 0.000000 0.000000 0.000000 1.000000 1.000000 1.000000 1.000000
1997.650146 2.481934 2504.191650 0.000000 0.000000 0.000000 1.000000 1.000000 1.000000 1.000000
1925.424805 1.442871 2522.832764 0.000000 0.000000 0.000000 1.000000 1.000000 1.000000 1.000000
2023.655640 1.012451 2487.480957 0.000000 0.000000 0.000000 1.000000 1.000000 1.000000 1.000000
1999.460815 1.344482 2434.922852 0.000000 0.000000 0.000000 1.000000 1.000000 1.000000 1.000000
2045.577148 -0.757080 2436.796387 0.000000 0.000000 0.000000 1.000000 1.000000 1.000000 1.000000
1636.185913 1.666748 2572.011230 0.000000 0.000000 0.000000 1.000000 1.000000 1.000000 1.000000
1603.658447 1.348633 2649.989014 0.000000 0.000000 0.000000 1.000000 1.000000 1.000000 1.000000
1593.654663 1.022949 2629.414307 0.000000 0.000000 0.000000 1.000000 1.000000 1.000000 1.000000
1723.108032 0.783203 2615.109375 0.000000 0.000000 0.000000 1.000000 1.000000 1.000000 1.000000
1704.600952 -0.345703 2638.896484 0.000000 0.000000 0.000000 1.000000 1.000000 1.000000 1.000000
1720.004639 1.076172 2669.204590 0.000000 0.000000 0.000000 1.000000 1.000000 1.000000 1.000000
2267.239258 0.000000 2368.224854 0.000000 0.000000 0.000000 1.000000 1.000000 1.000000 1.000000
2290.493164 0.000000 2370.008789 0.000000 0.000000 0.000000 1.000000 1.000000 1.000000 1.000000
2339.329102 0.000000 2359.119141 0.000000 0.000000 0.000000 1.000000 1.000000 1.000000 1.000000
2347.813721 0.000000 2327.358154 0.000000 0.000000 0.000000 1.000000 1.000000 1.000000 1.000000
2315.657715 0.000000 2321.209717 0.000000 0.000000 0.000000 1.000000 1.000000 1.000000 1.000000
2264.593994 0.000000 2327.466797 0.000000 0.000000 0.000000 1.000000 1.000000 1.000000 1.000000
2257.349121 0.000000 2351.274170 0.000000 0.000000 0.000000 1.000000 1.000000 1.000000 1.000000
2185.418213 0.000000 2427.554443 0.000000 0.000000 0.000000 1.000000 1.000000 1.000000 1.000000
2247.091309 0.000000 2439.636475 0.000000 0.000000 0.000000 1.000000 1.000000 1.000000 1.000000
2234.462402 0.000000 2411.196777 0.000000 0.000000 0.000000 1.000000 1.000000 1.000000 1.000000
2233.317871 0.000000 2304.672363 0.000000 0.000000 0.000000 1.000000 1.000000 1.000000 1.000000
2220.026123 0.000000 2366.636230 0.000000 0.000000 0.000000 1.000000 1.000000 1.000000 1.000000
2149.047119 0.000000 2426.549805 0.000000 0.000000 0.000000 1.000000 1.000000 1.000000 1.000000
2132.534180 0.000000 2454.997070 0.000000 0.000000 0.000000 1.000000 1.000000 1.000000 1.000000
2266.594238 0.000000 2397.751709 0.000000 0.000000 0.000000 1.000000 1.000000 1.000000 1.000000
2440.941650 0.000000 2366.177734 0.000000 0.000000 0.000000 1.000000 1.000000 1.000000 1.000000
2410.942871 0.000000 2390.787354 0.000000 0.000000 0.000000 1.000000 1.000000 1.000000 1.000000
2381.787842 0.000000 2440.655762 0.000000 0.000000 0.000000 1.000000 1.000000 1.000000 1.000000
2354.768066 0.000000 2413.507080 0.000000 0.000000 0.000000 1.000000 1.000000 1.000000 1.000000
2352.977539 0.000000 2450.517578 0.000000 0.000000 0.000000 1.000000 1.000000 1.000000 1.000000
2351.201904 0.000000 2484.691895 0.000000 0.000000 0.000000 1.000000 1.000000 1.000000 1.000000
2385.796387 0.000000 2540.245850 0.000000 0.000000 0.000000 1.000000 1.000000 1.000000 1.000000
2374.896484 0.000000 2518.934326 0.000000 0.000000 0.000000 1.000000 1.000000 1.000000 1.000000
2443.121826 0.000000 2487.234131 0.000000 0.000000 0.000000 1.000000 1.000000 1.000000 1.000000
2416.423584 0.000000 2453.217773 0.000000 0.000000 0.000000 1.000000 1.000000 1.000000 1.000000
2325.775391 0.000000 2464.284912 0.000000 0.000000 0.000000 1.000000 1.000000 1.000000 1.000000
2302.674561 0.000000 2413.839111 0.000000 0.000000 0.000000 1.000000 1.000000 1.000000 1.000000
2323.916992 0.000000 2381.411865 0.000000 0.000000 0.000000 1.000000 1.000000 1.000000 1.000000
2464.931152 0.000000 2345.688477 0.000000 0.000000 0.000000 1.000000 1.000000 1.000000 1.000000
2489.412354 0.000000 2317.391357 0.000000 0.000000 0.000000 1.000000 1.000000 1.000000 1.000000
2614.001221 0.000000 2240.853760 0.000000 0.000000 0.000000 1.000000 1.000000 1.000000 1.000000
2563.171387 0.000000 2427.212158 0.000000 0.000000 0.000000 1.000000 1.000000 1.000000 1.000000
2529.854980 0.000000 2417.275146 0.000000 0.000000 0.000000 1.000000 1.000000 1.000000 1.000000
2483.476074 0.000000 2387.894775 0.000000 0.000000 0.000000 1.000000 1.000000 1.000000 1.000000
2673.801758 0.000000 2434.508057 0.000000 0.000000 0.000000 1.000000 1.000000 1.000000 1.000000
2769.086670 0.000000 2480.061035 0.000000 0.000000 0.000000 1.000000 1.000000 1.000000 1.000000
2785.783203 0.000000 2505.993896 0.000000 0.000000 0.000000 1.000000 1.000000 1.000000 1.000000
2460.696289 0.000000 2550.561035 0.000000 0.000000 0.000000 1.000000 1.000000 1.000000 1.000000
2474.441650 0.000000 2513.279785 0.000000 0.000000 0.000000 1.000000 1.000000 1.000000 1.000000
2545.266113 0.000000 2362.799561 0.000000 0.000000 0.000000 1.000000 1.000000 1.000000 1.000000
2613.714844 0.000000 2259.875488 0.000000 0.000000 0.000000 1.000000 1.000000 1.000000 1.000000
2591.806396 0.000000 2327.643066 0.000000 0.000000 0.000000 1.000000 1.000000 1.000000 1.000000
2528.954346 0.000000 2220.895752 0.000000 0.000000 0.000000 1.000000 1.000000 1.000000 1.000000
2509.309570 0.000000 2206.961182 0.000000 0.000000 0.000000 1.000000 1.000000 1.000000 1.000000
2443.120605 0.000000 2223.471436 0.000000 0.000000 0.000000 1.000000 1.000000 1.000000 1.000000
2382.352539 0.000000 2254.284668 0.000000 0.000000 0.000000 1.000000 1.000000 1.000000 1.000000
2383.112549 0.000000 2285.766113 0.000000 0.000000 0.000000 1.000000 1.000000 1.000000 1.000000
2343.378418 0.000000 2263.760254 0.000000 0.000000 0.000000 1.000000 1.000000 1.000000 1.000000
2359.612305 0.000000 2166.181152 0.000000 0.000000 0.000000 1.000000 1.000000 1.000000 1.000000
2416.162109 0.000000 2335.225830 0.000000 0.000000 0.000000 1.000000 1.000000 1.000000 1.000000
2396.121094 0.000000 2378.399414 0.000000 0.000000 0.000000 1.000000 1.000000 1.000000 1.000000
2659.427002 0.000000 2305.188477 0.000000 0.000000 0.000000 1.000000 1.000000 1.000000 1.000000
2684.272217 0.000000 2249.651855 0.000000 0.000000 0.000000 1.000000 1.000000 1.000000 1.000000
2712.480713 0.000000 2233.642334 0.000000 0.000000 0.000000 1.000000 1.000000 1.000000 1.000000
2738.247803 0.000000 2205.057373 0.000000 0.000000 0.000000 1.000000 1.000000 1.000000 1.000000
2711.749756 0.000000 2180.361084 0.000000 0.000000 0.000000 1.000000 1.000000 1.000000 1.000000
2694.561523 0.000000 2186.873779 0.000000 0.000000 0.000000 1.000000 1.000000 1.000000 1.000000
2720.388428 0.000000 2366.213867 0.000000 0.000000 0.000000 1.000000 1.000000 1.000000 1.000000
2738.310547 0.000000 2387.328369 0.000000 0.000000 0.000000 1.000000 1.000000 1.000000 1.000000
2756.697754 0.000000 2482.258545 0.000000 0.000000 0.000000 1.000000 1.000000 1.000000 1.000000
2713.185059 0.000000 2457.724609 0.000000 0.000000 0.000000 1.000000 1.000000 1.000000 1.000000
2730.234619 0.000000 2416.885498 0.000000 0.000000 0.000000 1.000000 1.000000 1.000000 1.000000
2677.139648 0.000000 2414.103516 0.000000 0.000000 0.000000 1.000000 1.000000 1.000000 1.000000
2592.466553 0.000000 2357.042725 0.000000 0.000000 0.000000 1.000000 1.000000 1.000000 1.000000
5452.598145 0.000000 790.717468 0.000000 0.000000 0.000000 1.000000 1.000000 1.000000 1.000000
5462.714844 0.662292 848.140015 0.000000 0.000000 0.000000 1.000000 1.000000 1.000000 1.000000
5395.189941 0.000000 872.633545 0.000000 0.000000 0.000000 1.000000 1.000000 1.000000 1.000000
5442.735352 1.351562 920.551270 0.000000 0.000000 0.000000 1.000000 1.000000 1.000000 1.000000
5504.739258 1.289856 890.789612 0.000000 0.000000 0.000000 1.000000 1.000000 1.000000 1.000000
"}
object={
	name="env_snow_mountains"
	clamp_to_water_level=yes
	render_under_water=no
	generated_content=no
	layer="env_effect_mountains_layer"
	entity="env_snow_mountains"
	count=3
	transform="423.111237 1.298828 3877.760498 0.000000 0.000000 0.000000 1.000000 1.000000 1.000000 1.000000
910.712708 0.000000 2497.341064 0.000000 0.000000 0.000000 1.000000 1.000000 1.000000 1.000000
948.996277 0.588867 2468.330078 0.000000 0.000000 0.000000 1.000000 1.000000 1.000000 1.000000
"}
object={
	name="env_snow_plains"
	clamp_to_water_level=yes
	render_under_water=no
	generated_content=no
	layer="env_effect_layer"
	entity="env_snow_plains"
	count=36
	transform="2585.850342 -3.095947 3754.724365 0.000000 0.000000 0.000000 1.000000 1.000000 1.000000 1.000000
2094.675537 0.000000 3806.431152 0.000000 0.000000 0.000000 1.000000 1.000000 1.000000 1.000000
2030.183594 0.000000 3762.408447 0.000000 0.000000 0.000000 1.000000 1.000000 1.000000 1.000000
2020.419067 0.000000 3785.768555 0.000000 0.000000 0.000000 1.000000 1.000000 1.000000 1.000000
1918.067383 0.000000 3926.773926 0.000000 0.000000 0.000000 1.000000 1.000000 1.000000 1.000000
1750.593872 0.000000 3944.056885 0.000000 0.000000 0.000000 1.000000 1.000000 1.000000 1.000000
1690.708862 0.000000 3884.665283 0.000000 0.000000 0.000000 1.000000 1.000000 1.000000 1.000000
1902.449097 0.000000 3948.050781 0.000000 0.000000 0.000000 1.000000 1.000000 1.000000 1.000000
1824.390503 0.000000 3968.735840 0.000000 0.000000 0.000000 1.000000 1.000000 1.000000 1.000000
1954.897217 0.000000 3845.857666 0.000000 0.000000 0.000000 1.000000 1.000000 1.000000 1.000000
1678.473022 0.000000 3786.360352 0.000000 0.000000 0.000000 1.000000 1.000000 1.000000 1.000000
1460.552368 0.000000 3738.747559 0.000000 0.000000 0.000000 1.000000 1.000000 1.000000 1.000000
1436.313965 0.000000 3722.607178 0.000000 0.000000 0.000000 1.000000 1.000000 1.000000 1.000000
1467.653687 3.326660 3705.687988 0.000000 0.000000 0.000000 1.000000 1.000000 1.000000 1.000000
1649.756958 1.700928 3747.677734 0.000000 0.000000 0.000000 1.000000 1.000000 1.000000 1.000000
1908.313354 0.000000 3714.095459 0.000000 0.000000 0.000000 1.000000 1.000000 1.000000 1.000000
2016.678345 0.000000 3645.667236 0.000000 0.000000 0.000000 1.000000 1.000000 1.000000 1.000000
2104.719482 0.000000 3590.376221 0.000000 0.000000 0.000000 1.000000 1.000000 1.000000 1.000000
2200.104248 0.000000 3763.379395 0.000000 0.000000 0.000000 1.000000 1.000000 1.000000 1.000000
2196.443604 0.000000 3597.771729 0.000000 0.000000 0.000000 1.000000 1.000000 1.000000 1.000000
2168.341553 0.000000 3622.916504 0.000000 0.000000 0.000000 1.000000 1.000000 1.000000 1.000000
2283.030762 0.000000 3623.889404 0.000000 0.000000 0.000000 1.000000 1.000000 1.000000 1.000000
2362.026367 0.000000 3699.565186 0.000000 0.000000 0.000000 1.000000 1.000000 1.000000 1.000000
2400.589355 0.000000 3701.664307 0.000000 0.000000 0.000000 1.000000 1.000000 1.000000 1.000000
2413.298584 0.000000 3757.917480 0.000000 0.000000 0.000000 1.000000 1.000000 1.000000 1.000000
2384.273926 0.000000 3607.949951 0.000000 0.000000 0.000000 1.000000 1.000000 1.000000 1.000000
2423.877197 0.000000 3612.833740 0.000000 0.000000 0.000000 1.000000 1.000000 1.000000 1.000000
2419.601562 0.000000 3571.625488 0.000000 0.000000 0.000000 1.000000 1.000000 1.000000 1.000000
1055.054199 0.000000 3891.052246 0.000000 0.000000 0.000000 1.000000 1.000000 1.000000 1.000000
958.150940 0.000000 3831.629395 0.000000 0.000000 0.000000 1.000000 1.000000 1.000000 1.000000
1190.712524 0.000000 3909.962891 0.000000 0.000000 0.000000 1.000000 1.000000 1.000000 1.000000
1223.469604 0.000000 3964.134033 0.000000 0.000000 0.000000 1.000000 1.000000 1.000000 1.000000
1295.674194 0.000000 3946.437500 0.000000 0.000000 0.000000 1.000000 1.000000 1.000000 1.000000
1162.086060 0.000000 4055.350830 0.000000 0.000000 0.000000 1.000000 1.000000 1.000000 1.000000
1051.613647 0.000000 4060.965088 0.000000 0.000000 0.000000 1.000000 1.000000 1.000000 1.000000
888.555664 8.159668 4078.336670 0.000000 0.000000 0.000000 1.000000 1.000000 1.000000 1.000000
"}
object={
	name="env_snow_plains_ambient"
	clamp_to_water_level=yes
	render_under_water=no
	generated_content=no
	layer="env_effect_layer"
	entity="env_snow_plains_ambient"
	count=80
	transform="2673.284668 -0.325439 3779.354736 0.000000 0.000000 0.000000 1.000000 1.000000 1.000000 1.000000
1239.474731 0.000000 4030.135498 0.000000 0.000000 0.000000 1.000000 1.000000 1.000000 1.000000
1275.597412 12.283447 3987.927246 0.000000 0.000000 0.000000 1.000000 1.000000 1.000000 1.000000
1158.476562 8.097168 3961.094971 0.000000 0.000000 0.000000 1.000000 1.000000 1.000000 1.000000
1205.921631 13.949463 4053.071777 0.000000 0.000000 0.000000 1.000000 1.000000 1.000000 1.000000
1096.435669 5.514160 3901.371826 0.000000 0.000000 0.000000 1.000000 1.000000 1.000000 1.000000
1010.529907 2.955322 3860.207275 0.000000 0.000000 0.000000 1.000000 1.000000 1.000000 1.000000
1096.379395 13.299561 4047.380127 0.000000 0.000000 0.000000 1.000000 1.000000 1.000000 1.000000
955.035156 14.123779 4065.052002 0.000000 0.000000 0.000000 1.000000 1.000000 1.000000 1.000000
1012.880798 4.330811 4092.754883 0.000000 0.000000 0.000000 1.000000 1.000000 1.000000 1.000000
1459.596191 0.000000 4030.504639 0.000000 0.000000 0.000000 1.000000 1.000000 1.000000 1.000000
1335.420654 18.928223 4042.453369 0.000000 0.000000 0.000000 1.000000 1.000000 1.000000 1.000000
1403.048218 8.556885 4069.385498 0.000000 0.000000 0.000000 1.000000 1.000000 1.000000 1.000000
1533.073242 0.000000 4031.173096 0.000000 0.000000 0.000000 1.000000 1.000000 1.000000 1.000000
1607.042969 0.000000 4014.209229 0.000000 0.000000 0.000000 1.000000 1.000000 1.000000 1.000000
1676.824951 0.000000 4003.656494 0.000000 0.000000 0.000000 1.000000 1.000000 1.000000 1.000000
1710.493652 0.000000 4051.141357 0.000000 0.000000 0.000000 1.000000 1.000000 1.000000 1.000000
1767.908081 0.000000 4011.050537 0.000000 0.000000 0.000000 1.000000 1.000000 1.000000 1.000000
1819.115723 0.000000 4056.160889 0.000000 0.000000 0.000000 1.000000 1.000000 1.000000 1.000000
1885.461670 0.000000 4008.393799 0.000000 0.000000 0.000000 1.000000 1.000000 1.000000 1.000000
1915.027344 0.000000 4060.655029 0.000000 0.000000 0.000000 1.000000 1.000000 1.000000 1.000000
1961.848633 0.000000 3964.874268 0.000000 0.000000 0.000000 1.000000 1.000000 1.000000 1.000000
1987.635864 0.000000 4049.965576 0.000000 0.000000 0.000000 1.000000 1.000000 1.000000 1.000000
2040.957031 0.000000 3945.335449 0.000000 0.000000 0.000000 1.000000 1.000000 1.000000 1.000000
2081.270508 0.000000 4007.503174 0.000000 0.000000 0.000000 1.000000 1.000000 1.000000 1.000000
2041.788574 0.000000 4046.003418 0.000000 0.000000 0.000000 1.000000 1.000000 1.000000 1.000000
2116.257324 0.000000 3947.573486 0.000000 0.000000 0.000000 1.000000 1.000000 1.000000 1.000000
2175.021973 0.000000 4000.661133 0.000000 0.000000 0.000000 1.000000 1.000000 1.000000 1.000000
2146.981201 0.000000 4057.852051 0.000000 0.000000 0.000000 1.000000 1.000000 1.000000 1.000000
2226.492676 0.000000 3931.620361 0.000000 0.000000 0.000000 1.000000 1.000000 1.000000 1.000000
2326.712646 0.000000 3942.327637 0.000000 0.000000 0.000000 1.000000 1.000000 1.000000 1.000000
2243.526367 0.000000 3987.101318 0.000000 0.000000 0.000000 1.000000 1.000000 1.000000 1.000000
2265.722900 0.000000 4054.831055 0.000000 0.000000 0.000000 1.000000 1.000000 1.000000 1.000000
2360.833496 0.000000 4046.597656 0.000000 0.000000 0.000000 1.000000 1.000000 1.000000 1.000000
2336.471436 0.000000 3977.760742 0.000000 0.000000 0.000000 1.000000 1.000000 1.000000 1.000000
2412.208008 0.000000 3969.195801 0.000000 0.000000 0.000000 1.000000 1.000000 1.000000 1.000000
2400.606445 0.000000 3883.202393 0.000000 0.000000 0.000000 1.000000 1.000000 1.000000 1.000000
2269.849854 0.000000 3871.005859 0.000000 0.000000 0.000000 1.000000 1.000000 1.000000 1.000000
2339.549316 0.000000 3823.997803 0.000000 0.000000 0.000000 1.000000 1.000000 1.000000 1.000000
2273.601318 0.000000 3785.405518 0.000000 0.000000 0.000000 1.000000 1.000000 1.000000 1.000000
2203.468018 0.000000 3833.809570 0.000000 0.000000 0.000000 1.000000 1.000000 1.000000 1.000000
2074.569824 0.000000 3880.366455 0.000000 0.000000 0.000000 1.000000 1.000000 1.000000 1.000000
2003.171387 0.000000 3899.545166 0.000000 0.000000 0.000000 1.000000 1.000000 1.000000 1.000000
1656.632812 0.000000 3940.083496 0.000000 0.000000 0.000000 1.000000 1.000000 1.000000 1.000000
1689.705688 0.000000 3804.074707 0.000000 0.000000 0.000000 1.000000 1.000000 1.000000 1.000000
1622.186890 0.000000 3788.052490 0.000000 0.000000 0.000000 1.000000 1.000000 1.000000 1.000000
1502.282349 0.000000 3752.189697 0.000000 0.000000 0.000000 1.000000 1.000000 1.000000 1.000000
1364.818481 0.000000 3659.106934 0.000000 0.000000 0.000000 1.000000 1.000000 1.000000 1.000000
1564.495605 0.000000 3776.352295 0.000000 0.000000 0.000000 1.000000 1.000000 1.000000 1.000000
1765.288086 0.000000 3805.807861 0.000000 0.000000 0.000000 1.000000 1.000000 1.000000 1.000000
1834.024902 0.000000 3815.657471 0.000000 0.000000 0.000000 1.000000 1.000000 1.000000 1.000000
1895.792480 0.000000 3778.475830 0.000000 0.000000 0.000000 1.000000 1.000000 1.000000 1.000000
1967.635986 0.000000 3661.727295 0.000000 0.000000 0.000000 1.000000 1.000000 1.000000 1.000000
2055.036133 0.000000 3632.481934 0.000000 0.000000 0.000000 1.000000 1.000000 1.000000 1.000000
1980.695312 0.000000 3819.607422 0.000000 0.000000 0.000000 1.000000 1.000000 1.000000 1.000000
2158.063232 0.000000 3838.656006 0.000000 0.000000 0.000000 1.000000 1.000000 1.000000 1.000000
2186.801758 0.000000 3943.232910 0.000000 0.000000 0.000000 1.000000 1.000000 1.000000 1.000000
2088.437500 0.000000 3981.865723 0.000000 0.000000 0.000000 1.000000 1.000000 1.000000 1.000000
2158.168213 0.000000 4022.141357 0.000000 0.000000 0.000000 1.000000 1.000000 1.000000 1.000000
2323.394775 0.000000 3744.562256 0.000000 0.000000 0.000000 1.000000 1.000000 1.000000 1.000000
2303.355225 0.000000 3669.128906 0.000000 0.000000 0.000000 1.000000 1.000000 1.000000 1.000000
2433.382080 0.000000 3697.572998 0.000000 0.000000 0.000000 1.000000 1.000000 1.000000 1.000000
2542.166504 0.000000 3680.042725 0.000000 0.000000 0.000000 1.000000 1.000000 1.000000 1.000000
2241.412598 0.000000 3596.205078 0.000000 0.000000 0.000000 1.000000 1.000000 1.000000 1.000000
2374.072510 0.000000 3748.039795 0.000000 0.000000 0.000000 1.000000 1.000000 1.000000 1.000000
2463.174316 0.000000 3821.894531 0.000000 0.000000 0.000000 1.000000 1.000000 1.000000 1.000000
2542.130615 0.000000 3831.329346 0.000000 0.000000 0.000000 1.000000 1.000000 1.000000 1.000000
2582.930664 0.000000 3847.666504 0.000000 0.000000 0.000000 1.000000 1.000000 1.000000 1.000000
2609.648926 0.000000 3945.941406 0.000000 0.000000 0.000000 1.000000 1.000000 1.000000 1.000000
2539.704102 0.000000 3909.593994 0.000000 0.000000 0.000000 1.000000 1.000000 1.000000 1.000000
2484.821777 0.000000 3944.969238 0.000000 0.000000 0.000000 1.000000 1.000000 1.000000 1.000000
2464.473633 0.000000 4030.951416 0.000000 0.000000 0.000000 1.000000 1.000000 1.000000 1.000000
2564.983398 0.000000 4015.365234 0.000000 0.000000 0.000000 1.000000 1.000000 1.000000 1.000000
2593.933594 0.000000 3687.947754 0.000000 0.000000 0.000000 1.000000 1.000000 1.000000 1.000000
2650.656494 0.000000 3633.514893 0.000000 0.000000 0.000000 1.000000 1.000000 1.000000 1.000000
2702.368408 0.000000 3636.352783 0.000000 0.000000 0.000000 1.000000 1.000000 1.000000 1.000000
2731.955566 0.000000 3600.979248 0.000000 0.000000 0.000000 1.000000 1.000000 1.000000 1.000000
2596.416016 0.000000 3591.068604 0.000000 0.000000 0.000000 1.000000 1.000000 1.000000 1.000000
2534.034424 0.000000 3626.234131 0.000000 0.000000 0.000000 1.000000 1.000000 1.000000 1.000000
2468.167480 0.000000 3619.014893 0.000000 0.000000 0.000000 1.000000 1.000000 1.000000 1.000000
"}
object={
	name="waterfall"
	clamp_to_water_level=yes
	render_under_water=no
	generated_content=no
	layer="coast_foam_layer"
	entity="waterfall"
	count=6
	transform="1585.350342 2.947510 2541.591797 0.000000 0.575566 0.000000 0.817755 1.000000 1.000000 1.000000
1638.546753 3.583740 3754.739990 0.000000 0.215535 0.000000 0.976496 1.000000 1.000000 1.000000
1511.756104 0.116455 2324.177246 0.000000 0.914824 0.000000 0.403852 1.000000 1.000000 1.000000
1511.433960 0.297363 2322.637207 0.000000 0.895169 0.000000 0.445727 1.000000 1.000000 1.000000
2205.764648 0.862061 2868.646729 0.000000 -0.633845 0.000000 -0.773460 1.000000 1.000000 1.000000
2206.372559 0.065674 2867.447266 0.000000 0.678148 0.000000 0.734926 1.000000 1.000000 1.000000
"}
object={
	name="waterfall_bottom"
	clamp_to_water_level=yes
	render_under_water=no
	generated_content=no
	layer="coast_foam_layer"
	entity="waterfall_bottom"
	count=4
	transform="1583.304688 0.000000 2539.592285 0.000000 0.000000 0.000000 1.000000 1.000000 1.000000 1.000000
1638.324097 0.206543 3752.261475 0.000000 0.000000 0.000000 1.000000 1.000000 1.000000 1.000000
1511.818115 0.015137 2322.612549 0.000000 -0.624292 0.000000 0.781191 1.000000 1.000000 1.000000
2209.010498 -0.611572 2868.260498 0.000000 -0.707454 0.000000 0.706760 1.000000 1.000000 1.000000
"}
